com\vpp\PrimeDatabaseActor$GetResultCommand.class
com\vpp\PrimeDatabaseActor$NewRequestCommand.class
com\vpp\PrimeDatabaseActor$GeneratePrimeCommand.class
com\vpp\PrimeDatabaseActor.class
com\antoonvereecken\BigPrimeServer.class
com\vpp\PrimeDatabaseActor$Command.class
com\vpp\PrimeDatabaseActor$NewResultCommand.class
com\vpp\PrimeGeneratorActor.class
com\antoonvereecken\Main.class
